…
## See also

[`pdok_search_layers()`](https://coeneisma.github.io/pdokr/reference/pdok_search_layers.md)
to filter this list,
[`pdok_list_datasets()`](https://coeneisma.github.io/pdokr/reference/pdok_list_datasets.md)
for the datasets.

## Examples

``` r
# \donttest{
pdok_list_layers("cbs/gebiedsindelingen")
#> # A tibble: 63 × 9
#>    dataset layer title description start_date end_date crs    storage_crs bbox  
#>    <chr>   <chr> <chr> <chr>       <date>     <date>   <list>       <int> <list>
#>  1 cbs/ge… arbe… Arbe… Een indeli… 2016-01-01 NA       <int>        28992 <dbl> 
#>  2 cbs/ge… arbe… Arbe… arbeidsmar… 2016-01-01 NA       <int>        28992 <dbl> 
#>  3 cbs/ge… arro… Arro… De arrondi… 2016-01-01 NA       <int>        28992 <dbl> 
#>  4 cbs/ge… arro… Arro… arrondisse… 2016-01-01 NA       <int>        28992 <dbl> 
#>  5 cbs/ge… buur… Buur… Onderdeel … 2016-01-01 NA       <int>        28992 <dbl> 
#>  6 cbs/ge… buur… Buur… buurt_labe… 2016-01-01 NA       <int>        28992 <dbl> 
#>  7 cbs/ge… buur… Buur… buurtnietg… 2016-01-01 NA       <int>        28992 <dbl> 
#>  8 cbs/ge… coro… Coro… De COROP-g… 2016-01-01 NA       <int>        28992 <dbl> 
#>  9 cbs/ge… coro… Coro… coropgebie… 2016-01-01 NA       <int>        28992 <dbl> 
#> 10 cbs/ge… coro… Coro… De COROP-p… 2016-01-01 NA       <int>        28992 <dbl> 
#> # ℹ 53 more rows
…
